{
  "cordova-plugin-whitelist": {
    "source": {
      "type": "registry",
      "id": "cordova-plugin-whitelist@^1.3.3"
    },
    "is_top_level": true,
    "variables": {}
  },
  "cordova-plugin-browsersync": {
    "source": {
      "type": "registry",
      "id": "git+https://github.com/nparashuram/cordova-plugin-browsersync.git"
    },
    "is_top_level": true,
    "variables": {}
  }
}